{  
   "photos":{  
      "page":1,
      "pages":9030,
      "perpage":10,
      "total":"90296",
      "photo":[  
         {  
            "id":"34924410303",
            "owner":"149902454@N08",
            "secret":"883d7a3522",
            "server":"4047",
            "farm":5,
            "title":"banana",
            "ispublic":1,
            "isfriend":0,
            "isfamily":0,
            "url_m":"https:\/\/farm5.staticflickr.com\/4047\/34924410303_883d7a3522.jpg",
            "height_m":"333",
            "width_m":"500"
         },
         {  
            "id":"35694008616",
            "owner":"149902454@N08",
            "secret":"b8b756d234",
            "server":"4279",
            "farm":5,
            "title":"banana",
            "ispublic":1,
            "isfriend":0,
            "isfamily":0,
            "url_m":"https:\/\/farm5.staticflickr.com\/4279\/35694008616_b8b756d234.jpg",
            "height_m":"333",
            "width_m":"500"
         }
      ]
   },
   "stat":"ok"
}